IS415-GAA - Project: 1st Order Spatial Point Patterns Analysis Methods
…
read mall csv and convert to sf

mall_csv <- read_csv("data/geospatial/shoppingmalls-2019-csv/mall_coordinates_updated.csv")
mall_sf <- st_as_sf(mall_csv, coords = c("longitude", "latitude"), crs=4326)

mall_sf

Simple feature collection with 184 features and 2 fields
Geometry type: POINT
Dimension:     XY
Bounding box:  xmin: 103.6784 ymin: 1.263797 xmax: 103.9897 ymax: 1.448227
Geodetic CRS:  WGS 84
# A tibble: 184 × 3
    ...1 name                               geometry
 * <dbl> <chr>                           <POINT [°]>
 1     0 100 AM                  (103.8435 1.274588)
 2     1 112 KATONG              (103.9051 1.305087)
 3     2 313@SOMERSET            (103.8377 1.301385)
 4     3 321 CLEMENTI             (103.765 1.312025)
 5     4 600 @ TOA PAYOH          (103.851 1.334042)
 6     5 888 PLAZA               (103.7953 1.437131)
 7     6 AMK HUB                 (103.8485 1.369223)
 8     7 ADMIRALTY PLACE         (103.8018 1.439881)
 9     8 ALEXANDRA RETAIL CENTRE (103.8014 1.273843)
10     9 ANCHORPOINT             (103.8056 1.288935)
# … with 174 more rows
…
