IS415-GAA - Take-home Exercise 2: Spatio-temporal Analysis of COVID-19 Vaccination Trends at the Sub-district Level, DKI Jakarta
…
  #afterwards, pivots the table based on the Dates, using the cumulative case rate as the values
  ungroup() %>% pivot_wider(names_from = Date,
              values_from = vacc_rate)

Show Vaccination Rate:

Show the code!

vacc_rate

# A tibble: 261 x 13
   Sub_District  2021-~1 2021-~2 2021-~3 2021-~4 2021-~5 2021-~6 2022-~7 2022-~8
   <chr>           <dbl>   <dbl>   <dbl>   <dbl>   <dbl>   <dbl>   <dbl>   <dbl>
 1 ANCOL            48.5    61.6    72.1    75.0    76.9    78.9    80.6    80.8
 2 ANGKE            52.8    64.6    74.2    77.7    79.6    80.9    81.7    81.9
 3 BALE KAMBANG     37.0    57.0    70.0    73.9    76.6    78.2    79.5    79.7
 4 BALI MESTER      47.0    62.0    74.2    78.2    80.3    81.7    82.8    83.1
 5 BAMBU APUS       47.6    64.2    76.2    80.9    82.5    83.4    84.5    84.7
 6 BANGKA           51.6    61.3    73.2    78.0    79.8    80.7    81.5    81.7
 7 BARU             57.9    67.6    79.5    82.9    84.2    85.0    85.8    86.0
 8 BATU AMPAR       39.8    58.4    70.6    74.5    77.1    78.8    80.1    80.4
 9 BENDUNGAN HI~    53.6    62.6    75.6    79.1    80.5    81.4    82.3    82.5
10 BIDARA CINA      40.6    57.6    71.0    75.2    77.0    78.2    79.2    79.5
# ... with 251 more rows, 4 more variables: `2022-03-31` <dbl>,
#   `2022-04-30` <dbl>, `2022-05-31` <dbl>, `2022-06-30` <dbl>, and abbreviated
#   variable names 1: `2021-07-31`, 2: `2021-08-31`, 3: `2021-09-30`,
#   4: `2021-10-31`, 5: `2021-11-30`, 6: `2021-12-31`, 7: `2022-01-31`,
#   8: `2022-02-27`
…
# add a new field for Vaccination_Rate
vacc_attribute_table$Vaccination_Rate <- (vacc_attribute_table$Target - vacc_attribute_table$Not_Yet_Vaccinated) / vacc_attribute_table$Target*100

# final vaccination attribute table with Date, Sub_District, Vaccination_Rate
vacc_attribute_table <- tibble(vacc_attribute_table %>% select(1,2,5))

Display attribute table details:

Show the code!

vacc_attribute_table

# A tibble: 3,132 x 3
   Date       Sub_District Vaccination_Rate
   <date>     <chr>                   <dbl>
 1 2022-02-27 KEAGUNGAN                84.2
 2 2022-04-30 KEAGUNGAN                85.1
 3 2022-06-30 KEAGUNGAN                85.3
 4 2021-11-30 KEAGUNGAN                82.2
 5 2021-09-30 KEAGUNGAN                75.8
 6 2021-08-31 KEAGUNGAN                65.2
 7 2021-12-31 KEAGUNGAN                83.2
 8 2022-01-31 KEAGUNGAN                84.0
 9 2021-07-31 KEAGUNGAN                53.3
10 2022-03-31 KEAGUNGAN                84.6
# ... with 3,122 more rows
…
gi_stars <- vacc_rate_nb |>
  group_by(Date) |>
  mutate(gi_star = local_gstar_perm(
    Vaccination_Rate, nb, wt, nsim=99)) |>
      tidyr::unnest(gi_star)

Note: unnest() will unnest the gi_star column

Taking a look at the newly created gi_stars dataframe:

Show the code!

gi_stars

# A tibble: 3,132 x 13
# Groups:   Date [12]
   Date       Sub_Di~1 Vacci~2 nb    wt    gi_star    e_gi  var_gi p_value p_sim
   <date>     <chr>      <dbl> <lis> <lis>   <dbl>   <dbl>   <dbl>   <dbl> <dbl>
 1 2021-07-31 KEAGUNG~    53.3 <int> <dbl>   2.44  0.00383 2.13e-8 1.46e-2  0.02
 2 2021-07-31 GLODOK      61.6 <int> <dbl>   3.85  0.00384 1.56e-8 1.18e-4  0.02
 3 2021-07-31 HARAPAN~    49.7 <int> <dbl>   0.309 0.00382 2.20e-8 7.57e-1  0.84
 4 2021-07-31 CEMPAKA~    46.7 <int> <dbl>  -1.05  0.00383 1.53e-8 2.96e-1  0.34
 5 2021-07-31 PASAR B~    59.3 <int> <dbl>   2.71  0.00383 1.38e-8 6.82e-3  0.02
 6 2021-07-31 KARANG ~    52.2 <int> <dbl>   1.67  0.00382 2.17e-8 9.49e-2  0.1 
 7 2021-07-31 MANGGA ~    51.6 <int> <dbl>   1.35  0.00384 1.80e-8 1.77e-1  0.22
 8 2021-07-31 PETOJO ~    47.2 <int> <dbl>  -0.179 0.00382 1.92e-8 8.58e-1  0.96
 9 2021-07-31 SENEN       54.4 <int> <dbl>   1.51  0.00382 1.20e-8 1.32e-1  0.1 
10 2021-07-31 BUNGUR      52.8 <int> <dbl>   0.797 0.00385 1.54e-8 4.25e-1  0.48
# ... with 3,122 more rows, 3 more variables: p_folded_sim <dbl>,
#   skewness <dbl>, kurtosis <dbl>, and abbreviated variable names
#   1: Sub_District, 2: Vaccination_Rate
…
